GROUP = FILE_HEADER
  LANDSAT_SCENE_ID = "LE70380322005194EDC00"
  SPACECRAFT_ID = "L7_ETM"
  WRS_PATH = 38
  WRS_ROW = 32
  MODE = "SLC_OFF"
  FIRST_SCAN_DIRECTION = "R"
  NUMBER_OF_BANDS = 9
  BAND_LIST = (1, 2, 3, 4, 5, 61, 62, 7, 8)
END_GROUP = FILE_HEADER
GROUP = PROJECTION
  ELLIPSOID_AXES = (6378137.000000, 6356752.314200)
  MAP_PROJECTION = "UTM"
  PROJECTION_UNITS = "METERS"
  DATUM = "WGS84"
  ELLIPSOID = "WGS84"
  UTM_ZONE = 12
  PROJECTION_PARAMETERS = (0.000000, 0.000000, 0.000000, 0.000000, 0.000000, 
                           0.000000, 0.000000, 0.000000, 0.000000, 0.000000, 
                           0.000000, 0.000000, 0.000000, 0.000000, 0.000000)
  UL_CORNER = ( 295500.000,  4575600.000)
  UR_CORNER = ( 535800.000,  4575600.000)
  LL_CORNER = ( 295500.000,  4356300.000)
  LR_CORNER = ( 535800.000,  4356300.000)
END_GROUP = PROJECTION
GROUP = EPHEMERIS
  EPHEMERIS_EPOCH_YEAR = 2005
  EPHEMERIS_EPOCH_DAY = 194
  EPHEMERIS_EPOCH_SECONDS = 64643.000000
  NUMBER_OF_POINTS = 30
  EPHEMERIS_TIME = (64643.000000, 64644.000000, 64645.000000, 64646.000000, 64647.000000, 
                    64648.000000, 64649.000000, 64650.000000, 64651.000000, 64652.000000, 
                    64653.000000, 64654.000000, 64655.000000, 64656.000000, 64657.000000, 
                    64658.000000, 64659.000000, 64660.000000, 64661.000000, 64662.000000, 
                    64663.000000, 64664.000000, 64665.000000, 64666.000000, 64667.000000, 
                    64668.000000, 64669.000000, 64670.000000, 64671.000000, 64672.000000)
  EPHEMERIS_ECEF_X = (-1975096.788018, -1978567.263270, -1982036.084050, -1985503.245663, -1988968.743418, 
                      -1992432.572620, -1995894.728575, -1999355.206592, -2002814.001975, -2006271.110032, 
                      -2009726.526069, -2013180.245393, -2016632.263311, -2020082.575129, -2023531.176153, 
                      -2026978.061691, -2030423.227049, -2033866.667533, -2037308.378450, -2040748.355107, 
                      -2044186.592810, -2047623.086866, -2051057.832582, -2054490.825263, -2057922.060218, 
                      -2061351.532751, -2064779.238171, -2068205.171783, -2071629.328894, -2075051.704810)
  EPHEMERIS_ECEF_Y = (-4960632.481087, -4964462.812716, -4968287.081679, -4972105.284320, -4975917.416987, 
                      -4979723.476023, -4983523.457774, -4987317.358586, -4991105.174805, -4994886.902775, 
                      -4998662.538843, -5002432.079353, -5006195.520652, -5009952.859084, -5013704.090995, 
                      -5017449.212730, -5021188.220636, -5024921.111057, -5028647.880338, -5032368.524826, 
                      -5036083.040866, -5039791.424803, -5043493.672983, -5047189.781751, -5050879.747452, 
                      -5054563.566433, -5058241.235038, -5061912.749613, -5065578.106503, -5069237.302054)
  EPHEMERIS_ECEF_Z = ( 4644141.443353,  4638583.927816,  4633021.181931,  4627453.212244,  4621880.025298, 
                       4616301.627641,  4610718.025817,  4605129.226371,  4599535.235850,  4593936.060797, 
                       4588331.707760,  4582722.183283,  4577107.493912,  4571487.646191,  4565862.646668, 
                       4560232.501885,  4554597.218391,  4548956.802728,  4543311.261444,  4537660.601083, 
                       4532004.828191,  4526343.949313,  4520677.970995,  4515006.899781,  4509330.742218, 
                       4503649.504851,  4497963.194225,  4492271.816885,  4486575.379378,  4480873.888247)
END_GROUP = EPHEMERIS
GROUP = SOLAR_VECTOR
  SOLAR_EPOCH_YEAR = 2005
  SOLAR_EPOCH_DAY = 194
  SOLAR_EPOCH_SECONDS = 64643.000000
  EARTH_SUN_DISTANCE = 1.01652309
  NUMBER_OF_POINTS = 30
  SAMPLE_TIME = (64643.000000, 64644.000000, 64645.000000, 64646.000000, 64647.000000, 
                 64648.000000, 64649.000000, 64650.000000, 64651.000000, 64652.000000, 
                 64653.000000, 64654.000000, 64655.000000, 64656.000000, 64657.000000, 
                 64658.000000, 64659.000000, 64660.000000, 64661.000000, 64662.000000, 
                 64663.000000, 64664.000000, 64665.000000, 64666.000000, 64667.000000, 
                 64668.000000, 64669.000000, 64670.000000, 64671.000000, 64672.000000)
  SOLAR_ECEF_X = ( 3.40490629e-02,  3.39815624e-02,  3.39140616e-02,  3.38465607e-02,  3.37790596e-02, 
                   3.37115583e-02,  3.36440569e-02,  3.35765525e-02,  3.35090507e-02,  3.34415487e-02, 
                   3.33740465e-02,  3.33065441e-02,  3.32390416e-02,  3.31715389e-02,  3.31040333e-02, 
                   3.30365302e-02,  3.29690270e-02,  3.29015236e-02,  3.28340200e-02,  3.27665162e-02, 
                   3.26990123e-02,  3.26315081e-02,  3.25640011e-02,  3.24964967e-02,  3.24289920e-02, 
                   3.23614872e-02,  3.22939822e-02,  3.22264771e-02,  3.21589717e-02,  3.20914635e-02)
  SOLAR_ECEF_Y = (-9.28282900e-01, -9.28285385e-01, -9.28287864e-01, -9.28290339e-01, -9.28292809e-01, 
                  -9.28295274e-01, -9.28297734e-01, -9.28300189e-01, -9.28302640e-01, -9.28305085e-01, 
                  -9.28307526e-01, -9.28309961e-01, -9.28312392e-01, -9.28314817e-01, -9.28317238e-01, 
                  -9.28319654e-01, -9.28322065e-01, -9.28324471e-01, -9.28326872e-01, -9.28329269e-01, 
                  -9.28331660e-01, -9.28334046e-01, -9.28336428e-01, -9.28338805e-01, -9.28341176e-01, 
                  -9.28343543e-01, -9.28345905e-01, -9.28348262e-01, -9.28350614e-01, -9.28352961e-01)
  SOLAR_ECEF_Z = ( 3.70312731e-01,  3.70312703e-01,  3.70312675e-01,  3.70312647e-01,  3.70312619e-01, 
                   3.70312591e-01,  3.70312563e-01,  3.70312535e-01,  3.70312507e-01,  3.70312479e-01, 
                   3.70312451e-01,  3.70312423e-01,  3.70312395e-01,  3.70312367e-01,  3.70312339e-01, 
                   3.70312311e-01,  3.70312283e-01,  3.70312255e-01,  3.70312227e-01,  3.70312199e-01, 
                   3.70312171e-01,  3.70312142e-01,  3.70312114e-01,  3.70312086e-01,  3.70312058e-01, 
                   3.70312030e-01,  3.70312002e-01,  3.70311974e-01,  3.70311946e-01,  3.70311918e-01)
END_GROUP = SOLAR_VECTOR
GROUP = SCAN_TIME_POLY
  SCAN_TIME_POLY_NCOEFF = 4
  SCAN_TIME_POLY_NUMBER_DIRECTIONS = 2
  SCAN_TIME00_MEAN_ACTIVESCAN = 6.074373172e-02
  SCAN_TIME00_MEAN_EOL = 6.320716578e+03
  SCAN_TIME00_POLY_COEFF = (6.464394933e+04, 4.533336363e-03, 3.991122852e-12, -2.135209963e-16)
  SCAN_TIME01_MEAN_ACTIVESCAN = 6.074378312e-02
  SCAN_TIME01_MEAN_EOL = 6.320721925e+03
  SCAN_TIME01_POLY_COEFF = (6.464394931e+04, 4.533338703e-03, 2.408871243e-12, -2.009597343e-17)
END_GROUP = SCAN_TIME_POLY
GROUP = RPC_BAND01
  BAND01_LINES_PER_SCAN = 16
  BAND01_NUMBER_OF_DIRECTIONS = 2
  BAND01_NUM_L1T_LINES = 7311
  BAND01_NUM_L1T_SAMPS = 8011
  BAND01_NUM_L1R_LINES = 5999
  BAND01_NUM_L1R_SAMPS = 6599
  BAND01_PIXEL_SIZE = 30.000
  BAND01_START_TIME = 64643.985615
  BAND01_LINE_TIME = 0.072340
  BAND01_MEAN_HEIGHT = 4000.000
  BAND01_MEAN_L1R_LINE_SAMP = (2999.500, 3299.015)
  BAND01_MEAN_L1T_LINE_SAMP = (3658.717, 4023.696)
  BAND01_MEAN_SAT_VECTOR = (-0.000376647, -0.003144918,  0.995829904)
  BAND01_SAT_X_NUM_COEF = (-9.578240e-05, -5.676403e-07, -4.741501e-05, -5.292241e-10, -1.152727e-05, 
                           -8.141397e-12,  1.166933e-11,  3.416906e-11,  1.252862e-15,  6.112778e-17)
  BAND01_SAT_X_DEN_COEF = ( 3.703005e-06, -7.892044e-07, -1.411868e-06, -3.922262e-06,  3.765152e-11, 
                            4.869945e-10,  9.612658e-10,  4.615241e-16,  5.265476e-18)
  BAND01_SAT_Y_NUM_COEF = (-7.000819e-04,  4.737286e-05, -6.237858e-07, -4.468358e-09, -4.752321e-05, 
                            3.084834e-12,  5.214418e-11,  1.800370e-10, -1.015834e-15, -3.265132e-17)
  BAND01_SAT_Y_DEN_COEF = ( 6.750574e-06, -1.739676e-06, -1.393169e-06, -7.018018e-06, -4.576439e-11, 
                            7.250774e-10,  9.470534e-10,  4.221348e-15, -4.247640e-16)
  BAND01_SAT_Z_NUM_COEF = ( 4.162578e-03,  2.059877e-07, -2.998071e-08, -1.185326e-08, -2.139789e-07, 
                           -6.846256e-11, -5.365725e-10, -1.051280e-09, -4.227959e-16, -1.445956e-19)
  BAND01_SAT_Z_DEN_COEF = (-9.152467e-07,  1.038685e-07, -2.840828e-06,  8.517905e-07,  8.952523e-11, 
                            7.021959e-10,  1.386418e-09,  2.724160e-16, -6.699446e-17)
  BAND01_MEAN_SUN_VECTOR = ( 0.378183628, -0.266848020,  0.886334104)
  BAND01_SUN_X_NUM_COEF = ( 2.786615e-05, -5.839102e-08, -5.230125e-06,  1.981063e-14, -2.796929e-07, 
                            1.980507e-13,  1.857566e-11,  1.281455e-11, -2.496693e-18,  7.429204e-18)
  BAND01_SUN_X_DEN_COEF = ( 4.579470e-07, -3.900758e-06, -1.732316e-10,  5.978903e-08, -2.317127e-11, 
                           -4.123970e-12,  2.080270e-11,  1.173343e-16,  1.566445e-17)
  BAND01_SUN_Y_NUM_COEF = (-8.074642e-05,  4.163237e-06, -1.555688e-06,  4.344964e-14, -8.062625e-08, 
                            2.659119e-11,  5.899178e-12,  1.890141e-11, -3.991035e-18,  1.638640e-18)
  BAND01_SUN_Y_DEN_COEF = ( 5.467279e-06, -3.314881e-07, -6.280904e-12,  1.295113e-07, -1.104382e-12, 
                           -5.367828e-12,  2.364971e-11,  2.567542e-17,  1.624912e-17)
  BAND01_SUN_Z_NUM_COEF = ( 6.597758e-05,  1.279017e-06,  1.763045e-06, -2.139620e-14,  9.444018e-08, 
                           -1.659018e-11, -8.231308e-12, -7.024993e-12, -1.392012e-17,  5.415462e-17)
  BAND01_SUN_Z_DEN_COEF = (-5.637042e-06,  1.504176e-06, -1.580473e-10,  5.348763e-07,  5.316305e-13, 
                           -2.355051e-11,  1.484561e-11,  9.468833e-18, -1.248074e-16)
  BAND01_DIR00_MEAN_HEIGHT = 4000.000
  BAND01_DIR00_MEAN_L1R_LINE_SAMP = (2999.500, 3299.015)
  BAND01_DIR00_MEAN_L1T_LINE_SAMP = (3658.509, 4023.742)
  BAND01_DIR00_LINE_NUM_COEF = (-1.124729e-01,  9.515581e-01, -1.896188e-01, -1.251430e-04,  9.506256e-08)
  BAND01_DIR00_LINE_DEN_COEF = ( 2.117874e-08,  2.354749e-07, -4.302209e-10, -4.221489e-12)
  BAND01_DIR00_SAMP_NUM_COEF = (-1.253751e+00,  2.480707e-01,  9.696839e-01, -1.400099e-05, -6.998456e-07)
  BAND01_DIR00_SAMP_DEN_COEF = (-7.479950e-07, -1.803237e-07, -1.578839e-06,  1.379362e-10)
  BAND01_DIR01_MEAN_HEIGHT = 4000.000
  BAND01_DIR01_MEAN_L1R_LINE_SAMP = (2999.500, 3299.015)
  BAND01_DIR01_MEAN_L1T_LINE_SAMP = (3658.927, 4023.649)
  BAND01_DIR01_LINE_NUM_COEF = ( 3.036809e-01,  9.515581e-01, -1.896188e-01, -1.251430e-04,  9.506255e-08)
  BAND01_DIR01_LINE_DEN_COEF = ( 2.117913e-08,  2.354731e-07, -4.302209e-10, -4.221489e-12)
  BAND01_DIR01_SAMP_NUM_COEF = (-1.240715e+00,  2.480709e-01,  9.696839e-01, -1.400098e-05, -6.998324e-07)
  BAND01_DIR01_SAMP_DEN_COEF = (-7.479951e-07, -1.802659e-07, -1.578839e-06,  1.379363e-10)
END_GROUP = RPC_BAND01
GROUP = RPC_BAND02
  BAND02_LINES_PER_SCAN = 16
  BAND02_NUMBER_OF_DIRECTIONS = 2
  BAND02_NUM_L1T_LINES = 7311
  BAND02_NUM_L1T_SAMPS = 8011
  BAND02_NUM_L1R_LINES = 5999
  BAND02_NUM_L1R_SAMPS = 6599
  BAND02_PIXEL_SIZE = 30.000
  BAND02_START_TIME =   0.000000
  BAND02_LINE_TIME = 0.000000
  BAND02_MEAN_HEIGHT = 4000.000
  BAND02_MEAN_L1R_LINE_SAMP = (2999.500, 3299.015)
  BAND02_MEAN_L1T_LINE_SAMP = (3658.705, 4023.721)
  BAND02_MEAN_SAT_VECTOR = (-0.000377808, -0.003145519,  0.995829832)
  BAND02_SAT_X_NUM_COEF = (-9.580103e-05, -5.675797e-07, -4.741502e-05, -5.308495e-10, -1.152734e-05, 
                           -8.139105e-12,  1.167977e-11,  3.416974e-11,  1.162565e-15,  6.114817e-17)
  BAND02_SAT_X_DEN_COEF = ( 3.702742e-06, -7.891390e-07, -1.411867e-06, -3.922204e-06,  3.941601e-11, 
                            4.862841e-10,  9.613393e-10,  4.627787e-16,  5.069044e-18)
  BAND02_SAT_Y_NUM_COEF = (-7.000940e-04,  4.737311e-05, -6.238284e-07, -4.469066e-09, -4.752347e-05, 
                            3.096629e-12,  5.220247e-11,  1.800619e-10, -9.969387e-16, -3.263012e-17)
  BAND02_SAT_Y_DEN_COEF = ( 6.736861e-06, -1.732748e-06, -1.393166e-06, -6.997180e-06, -4.380265e-11, 
                            7.241518e-10,  9.470710e-10,  4.174462e-15, -4.157607e-16)
  BAND02_SAT_Z_NUM_COEF = ( 4.162648e-03,  2.003209e-07, -2.888855e-08, -1.185272e-08, -2.080329e-07, 
                           -6.846244e-11, -5.365716e-10, -1.051281e-09, -4.228419e-16, -1.671822e-19)
  BAND02_SAT_Z_DEN_COEF = (-9.281184e-07,  1.065178e-07, -2.840826e-06,  8.653345e-07,  8.952509e-11, 
                            7.022002e-10,  1.386422e-09,  2.721411e-16, -6.674337e-17)
  BAND02_MEAN_SUN_VECTOR = ( 0.378183497, -0.266848110,  0.886334132)
  BAND02_SUN_X_NUM_COEF = ( 2.786632e-05, -5.839263e-08, -5.230125e-06,  1.998296e-14, -2.796907e-07, 
                            1.987551e-13,  1.858812e-11,  1.283263e-11, -1.931189e-18,  7.321542e-18)
  BAND02_SUN_X_DEN_COEF = ( 4.555591e-07, -3.904210e-06, -1.737296e-10,  5.999960e-08, -2.327857e-11, 
                           -4.094402e-12,  2.080391e-11,  1.174658e-16,  1.519401e-17)
  BAND02_SUN_Y_NUM_COEF = (-8.074777e-05,  4.163286e-06, -1.555697e-06,  3.705366e-14, -8.067764e-08, 
                            2.658173e-11,  5.904650e-12,  1.890069e-11, -4.360775e-18,  1.680479e-18)
  BAND02_SUN_Y_DEN_COEF = ( 5.464739e-06, -3.309726e-07, -6.175601e-12,  1.297485e-07, -1.113753e-12, 
                           -5.439276e-12,  2.366369e-11,  2.567063e-17,  1.621924e-17)
  BAND02_SUN_Z_NUM_COEF = ( 6.597818e-05,  1.279009e-06,  1.763048e-06, -2.058173e-14,  9.444937e-08, 
                           -1.657915e-11, -8.190472e-12, -6.990860e-12, -1.481526e-17,  5.381645e-17)
  BAND02_SUN_Z_DEN_COEF = (-5.628398e-06,  1.523622e-06, -1.598166e-10,  5.342563e-07,  2.291192e-13, 
                           -2.340700e-11,  1.493590e-11,  8.572171e-18, -1.249396e-16)
  BAND02_DIR00_MEAN_HEIGHT = 4000.000
  BAND02_DIR00_MEAN_L1R_LINE_SAMP = (2999.500, 3299.015)
  BAND02_DIR00_MEAN_L1T_LINE_SAMP = (3658.549, 4023.754)
  BAND02_DIR00_LINE_NUM_COEF = (-1.126499e-01,  9.515580e-01, -1.896191e-01, -1.251690e-04,  9.530632e-08)
  BAND02_DIR00_LINE_DEN_COEF = ( 2.117549e-08,  2.357069e-07, -4.302242e-10, -4.221403e-12)
  BAND02_DIR00_SAMP_NUM_COEF = (-1.243812e+00,  2.480690e-01,  9.696764e-01, -1.398314e-05, -6.999149e-07)
  BAND02_DIR00_SAMP_DEN_COEF = (-7.474142e-07, -1.777681e-07, -1.578839e-06,  1.379862e-10)
  BAND02_DIR01_MEAN_HEIGHT = 4000.000
  BAND02_DIR01_MEAN_L1R_LINE_SAMP = (2999.500, 3299.015)
  BAND02_DIR01_MEAN_L1T_LINE_SAMP = (3658.861, 4023.687)
  BAND02_DIR01_LINE_NUM_COEF = ( 1.973196e-01,  9.515580e-01, -1.896191e-01, -1.251690e-04,  9.530631e-08)
  BAND02_DIR01_LINE_DEN_COEF = ( 2.117577e-08,  2.357055e-07, -4.302242e-10, -4.221403e-12)
  BAND02_DIR01_SAMP_NUM_COEF = (-1.230968e+00,  2.480691e-01,  9.696763e-01, -1.398313e-05, -6.999050e-07)
  BAND02_DIR01_SAMP_DEN_COEF = (-7.474138e-07, -1.777250e-07, -1.578839e-06,  1.379862e-10)
END_GROUP = RPC_BAND02
GROUP = RPC_BAND03
  BAND03_LINES_PER_SCAN = 16
  BAND03_NUMBER_OF_DIRECTIONS = 2
  BAND03_NUM_L1T_LINES = 7311
  BAND03_NUM_L1T_SAMPS = 8011
  BAND03_NUM_L1R_LINES = 5999
  BAND03_NUM_L1R_SAMPS = 6599
  BAND03_PIXEL_SIZE = 30.000
  BAND03_START_TIME =   0.000000
  BAND03_LINE_TIME = 0.000000
  BAND03_MEAN_HEIGHT = 4000.000
  BAND03_MEAN_L1R_LINE_SAMP = (2999.500, 3299.015)
  BAND03_MEAN_L1T_LINE_SAMP = (3658.692, 4023.750)
  BAND03_MEAN_SAT_VECTOR = (-0.000379176, -0.003146154,  0.995829761)
  BAND03_SAT_X_NUM_COEF = (-9.582183e-05, -5.675131e-07, -4.741504e-05, -5.327698e-10, -1.152741e-05, 
                           -8.136754e-12,  1.169030e-11,  3.416983e-11,  1.072127e-15,  6.116869e-17)
  BAND03_SAT_X_DEN_COEF = ( 3.702473e-06, -7.890474e-07, -1.411866e-06, -3.922143e-06,  4.118319e-11, 
                            4.855727e-10,  9.614128e-10,  4.640238e-16,  4.870417e-18)
  BAND03_SAT_Y_NUM_COEF = (-7.001056e-04,  4.737337e-05, -6.238703e-07, -4.469821e-09, -4.752374e-05, 
                            3.108301e-12,  5.226062e-11,  1.800875e-10, -9.774259e-16, -3.260842e-17)
  BAND03_SAT_Y_DEN_COEF = ( 6.722768e-06, -1.725673e-06, -1.393163e-06, -6.975979e-06, -4.177647e-11, 
                            7.232016e-10,  9.470909e-10,  4.126038e-15, -4.064723e-16)
  BAND03_SAT_Z_NUM_COEF = ( 4.162716e-03,  1.946157e-07, -2.779823e-08, -1.185216e-08, -2.020490e-07, 
                           -6.846232e-11, -5.365708e-10, -1.051281e-09, -4.228883e-16, -1.898961e-19)
  BAND03_SAT_Z_DEN_COEF = (-9.343182e-07,  1.078348e-07, -2.840825e-06,  8.718659e-07,  8.952483e-11, 
                            7.022035e-10,  1.386426e-09,  2.719730e-16, -6.643317e-17)
  BAND03_MEAN_SUN_VECTOR = ( 0.378183344, -0.266848210,  0.886334166)
  BAND03_SUN_X_NUM_COEF = ( 2.786648e-05, -5.839414e-08, -5.230126e-06,  2.015083e-14, -2.796886e-07, 
                            1.993168e-13,  1.859824e-11,  1.284960e-11, -1.368912e-18,  7.214074e-18)
  BAND03_SUN_X_DEN_COEF = ( 4.536220e-07, -3.907449e-06, -1.742249e-10,  6.019736e-08, -2.338365e-11, 
                           -4.064843e-12,  2.080482e-11,  1.175891e-16,  1.472207e-17)
  BAND03_SUN_Y_NUM_COEF = (-8.074908e-05,  4.163336e-06, -1.555706e-06,  3.064856e-14, -8.072905e-08, 
                            2.657243e-11,  5.909988e-12,  1.890000e-11, -4.733560e-18,  1.720122e-18)
  BAND03_SUN_Y_DEN_COEF = ( 5.462286e-06, -3.304846e-07, -6.076120e-12,  1.299345e-07, -1.123790e-12, 
                           -5.511420e-12,  2.367751e-11,  2.566687e-17,  1.619115e-17)
  BAND03_SUN_Z_NUM_COEF = ( 6.597877e-05,  1.279001e-06,  1.763050e-06, -1.976904e-14,  9.445857e-08, 
                           -1.656779e-11, -8.149512e-12, -6.957113e-12, -1.570906e-17,  5.347439e-17)
  BAND03_SUN_Z_DEN_COEF = (-5.619480e-06,  1.542842e-06, -1.615873e-10,  5.336058e-07, -7.390864e-14, 
                           -2.326192e-11,  1.502503e-11,  7.671016e-18, -1.250621e-16)
  BAND03_DIR00_MEAN_HEIGHT = 4000.000
  BAND03_DIR00_MEAN_L1R_LINE_SAMP = (2999.500, 3299.015)
  BAND03_DIR00_MEAN_L1T_LINE_SAMP = (3658.589, 4023.770)
  BAND03_DIR00_LINE_NUM_COEF = (-1.128551e-01,  9.515580e-01, -1.896194e-01, -1.251973e-04,  9.559135e-08)
  BAND03_DIR00_LINE_DEN_COEF = ( 2.117206e-08,  2.359777e-07, -4.302283e-10, -4.221283e-12)
  BAND03_DIR00_SAMP_NUM_COEF = (-1.233952e+00,  2.480673e-01,  9.696691e-01, -1.395869e-05, -6.999745e-07)
  BAND03_DIR00_SAMP_DEN_COEF = (-7.468264e-07, -1.752222e-07, -1.578839e-06,  1.380175e-10)
  BAND03_DIR01_MEAN_HEIGHT = 4000.000
  BAND03_DIR01_MEAN_L1R_LINE_SAMP = (2999.500, 3299.015)
  BAND03_DIR01_MEAN_L1T_LINE_SAMP = (3658.795, 4023.730)
  BAND03_DIR01_LINE_NUM_COEF = ( 9.092979e-02,  9.515580e-01, -1.896193e-01, -1.251973e-04,  9.559134e-08)
  BAND03_DIR01_LINE_DEN_COEF = ( 2.117223e-08,  2.359768e-07, -4.302283e-10, -4.221283e-12)
  BAND03_DIR01_SAMP_NUM_COEF = (-1.221251e+00,  2.480673e-01,  9.696691e-01, -1.395868e-05, -6.999680e-07)
  BAND03_DIR01_SAMP_DEN_COEF = (-7.468255e-07, -1.751937e-07, -1.578839e-06,  1.380175e-10)
END_GROUP = RPC_BAND03
GROUP = RPC_BAND04
  BAND04_LINES_PER_SCAN = 16
  BAND04_NUMBER_OF_DIRECTIONS = 2
  BAND04_NUM_L1T_LINES = 7311
  BAND04_NUM_L1T_SAMPS = 8011
  BAND04_NUM_L1R_LINES = 5999
  BAND04_NUM_L1R_SAMPS = 6599
  BAND04_PIXEL_SIZE = 30.000
  BAND04_START_TIME =   0.000000
  BAND04_LINE_TIME = 0.000000
  BAND04_MEAN_HEIGHT = 4000.000
  BAND04_MEAN_L1R_LINE_SAMP = (2999.500, 3299.015)
  BAND04_MEAN_L1T_LINE_SAMP = (3658.666, 4023.764)
  BAND04_MEAN_SAT_VECTOR = (-0.000379818, -0.003147347,  0.995829692)
  BAND04_SAT_X_NUM_COEF = (-9.583358e-05, -5.674445e-07, -4.741506e-05, -5.336597e-10, -1.152748e-05, 
                           -8.134209e-12,  1.170195e-11,  3.417133e-11,  9.817165e-16,  6.118936e-17)
  BAND04_SAT_X_DEN_COEF = ( 3.702149e-06, -7.890317e-07, -1.411865e-06, -3.922054e-06,  4.294979e-11, 
                            4.848614e-10,  9.614863e-10,  4.652577e-16,  4.669705e-18)
  BAND04_SAT_Y_NUM_COEF = (-7.001201e-04,  4.737362e-05, -6.239193e-07, -4.471363e-09, -4.752402e-05, 
                            3.119844e-12,  5.231860e-11,  1.801134e-10, -9.572440e-16, -3.258617e-17)
  BAND04_SAT_Y_DEN_COEF = ( 6.708745e-06, -1.718678e-06, -1.393160e-06, -6.954919e-06, -3.968056e-11, 
                            7.222254e-10,  9.471150e-10,  4.075965e-15, -3.968727e-16)
  BAND04_SAT_Z_NUM_COEF = ( 4.162781e-03,  1.889204e-07, -2.667022e-08, -1.185160e-08, -1.960654e-07, 
                           -6.846219e-11, -5.365700e-10, -1.051281e-09, -4.229350e-16, -2.127527e-19)
  BAND04_SAT_Z_DEN_COEF = (-9.390281e-07,  1.087987e-07, -2.840824e-06,  8.768174e-07,  8.952457e-11, 
                            7.022065e-10,  1.386431e-09,  2.718498e-16, -6.615449e-17)
  BAND04_MEAN_SUN_VECTOR = ( 0.378183272, -0.266848336,  0.886334158)
  BAND04_SUN_X_NUM_COEF = ( 2.786664e-05, -5.839594e-08, -5.230126e-06,  2.033046e-14, -2.796865e-07, 
                            1.999038e-13,  1.860873e-11,  1.286647e-11, -8.099901e-19,  7.107332e-18)
  BAND04_SUN_X_DEN_COEF = ( 4.516123e-07, -3.910670e-06, -1.747174e-10,  6.039565e-08, -2.348842e-11, 
                           -4.035347e-12,  2.080572e-11,  1.177134e-16,  1.425413e-17)
  BAND04_SUN_Y_NUM_COEF = (-8.075035e-05,  4.163385e-06, -1.555716e-06,  2.423190e-14, -8.078051e-08, 
                            2.656205e-11,  5.916108e-12,  1.889918e-11, -5.111107e-18,  1.751797e-18)
  BAND04_SUN_Y_DEN_COEF = ( 5.459624e-06, -3.299159e-07, -5.981665e-12,  1.300643e-07, -1.135526e-12, 
                           -5.583173e-12,  2.369250e-11,  2.567140e-17,  1.616474e-17)
  BAND04_SUN_Z_NUM_COEF = ( 6.597933e-05,  1.278993e-06,  1.763053e-06, -1.896993e-14,  9.446777e-08, 
                           -1.655644e-11, -8.109019e-12, -6.923932e-12, -1.660088e-17,  5.313063e-17)
  BAND04_SUN_Z_DEN_COEF = (-5.610554e-06,  1.561732e-06, -1.633579e-10,  5.329337e-07, -3.777597e-13, 
                           -2.311628e-11,  1.511243e-11,  6.760933e-18, -1.251773e-16)
  BAND04_DIR00_MEAN_HEIGHT = 4000.000
  BAND04_DIR00_MEAN_L1R_LINE_SAMP = (2999.500, 3299.015)
  BAND04_DIR00_MEAN_L1T_LINE_SAMP = (3658.616, 4023.771)
  BAND04_DIR00_LINE_NUM_COEF = (-1.131190e-01,  9.515579e-01, -1.896196e-01, -1.252387e-04,  9.595727e-08)
  BAND04_DIR00_LINE_DEN_COEF = ( 2.116747e-08,  2.363257e-07, -4.302353e-10, -4.220923e-12)
  BAND04_DIR00_SAMP_NUM_COEF = (-1.224319e+00,  2.480655e-01,  9.696621e-01, -1.396215e-05, -7.000308e-07)
  BAND04_DIR00_SAMP_DEN_COEF = (-7.462478e-07, -1.727247e-07, -1.578839e-06,  1.380305e-10)
  BAND04_DIR01_MEAN_HEIGHT = 4000.000
  BAND04_DIR01_MEAN_L1R_LINE_SAMP = (2999.500, 3299.015)
  BAND04_DIR01_MEAN_L1T_LINE_SAMP = (3658.716, 4023.758)
  BAND04_DIR01_LINE_NUM_COEF = (-1.551941e-02,  9.515579e-01, -1.896196e-01, -1.252387e-04,  9.595727e-08)
  BAND04_DIR01_LINE_DEN_COEF = ( 2.116752e-08,  2.363253e-07, -4.302353e-10, -4.220923e-12)
  BAND04_DIR01_SAMP_NUM_COEF = (-1.211717e+00,  2.480656e-01,  9.696621e-01, -1.396214e-05, -7.000276e-07)
  BAND04_DIR01_SAMP_DEN_COEF = (-7.462465e-07, -1.727108e-07, -1.578839e-06,  1.380305e-10)
END_GROUP = RPC_BAND04
GROUP = RPC_BAND05
  BAND05_LINES_PER_SCAN = 16
  BAND05_NUMBER_OF_DIRECTIONS = 2
  BAND05_NUM_L1T_LINES = 7311
  BAND05_NUM_L1T_SAMPS = 8011
  BAND05_NUM_L1R_LINES = 5999
  BAND05_NUM_L1R_SAMPS = 6599
  BAND05_PIXEL_SIZE = 30.000
  BAND05_START_TIME =   0.000000
  BAND05_LINE_TIME = 0.000000
  BAND05_MEAN_HEIGHT = 4000.000
  BAND05_MEAN_L1R_LINE_SAMP = (2999.500, 3299.015)
  BAND05_MEAN_L1T_LINE_SAMP = (3659.057, 4023.646)
  BAND05_MEAN_SAT_VECTOR = (-0.000374420, -0.003128811,  0.995829596)
  BAND05_SAT_X_NUM_COEF = (-9.581509e-05, -5.672477e-07, -4.741503e-05, -5.259624e-10, -1.152768e-05, 
                           -8.126379e-12,  1.173703e-11,  3.417727e-11,  7.248886e-16,  6.124789e-17)
  BAND05_SAT_X_DEN_COEF = ( 3.702060e-06, -7.895050e-07, -1.411862e-06, -3.922806e-06,  4.796793e-11, 
                            4.828407e-10,  9.616947e-10,  4.687070e-16,  4.087977e-18)
  BAND05_SAT_Y_NUM_COEF = (-7.000768e-04,  4.737437e-05, -6.241191e-07, -4.444603e-09, -4.752482e-05, 
                            3.151605e-12,  5.247941e-11,  1.801828e-10, -8.971716e-16, -3.252146e-17)
  BAND05_SAT_Y_DEN_COEF = ( 6.659115e-06, -1.694850e-06, -1.393147e-06, -6.884594e-06, -3.344089e-11, 
                            7.193335e-10,  9.471556e-10,  3.926856e-15, -3.683241e-16)
  BAND05_SAT_Z_NUM_COEF = ( 4.162953e-03,  1.717070e-07, -2.310903e-08, -1.184973e-08, -1.779421e-07, 
                           -6.846181e-11, -5.365678e-10, -1.051281e-09, -4.230683e-16, -2.775934e-19)
  BAND05_SAT_Z_DEN_COEF = (-9.545397e-07,  1.118228e-07, -2.840822e-06,  8.930900e-07,  8.952401e-11, 
                            7.022152e-10,  1.386443e-09,  2.717274e-16, -6.550885e-17)
  BAND05_MEAN_SUN_VECTOR = ( 0.378183869, -0.266846522,  0.886334447)
  BAND05_SUN_X_NUM_COEF = ( 2.786703e-05, -5.840405e-08, -5.230115e-06,  2.087965e-14, -2.796803e-07, 
                            2.013500e-13,  1.863473e-11,  1.291645e-11,  7.870893e-19,  6.801465e-18)
  BAND05_SUN_X_DEN_COEF = ( 4.466167e-07, -3.920220e-06, -1.761238e-10,  6.098364e-08, -2.378464e-11, 
                           -3.953474e-12,  2.080869e-11,  1.180600e-16,  1.290820e-17)
  BAND05_SUN_Y_NUM_COEF = (-8.075321e-05,  4.163526e-06, -1.555742e-06,  6.025686e-15, -8.092718e-08, 
                            2.653553e-11,  5.931445e-12,  1.889707e-11, -6.162860e-18,  1.871823e-18)
  BAND05_SUN_Y_DEN_COEF = ( 5.453048e-06, -3.285830e-07, -5.779142e-12,  1.301598e-07, -1.162037e-12, 
                           -5.786919e-12,  2.373175e-11,  2.567221e-17,  1.610331e-17)
  BAND05_SUN_Z_NUM_COEF = ( 6.598082e-05,  1.278962e-06,  1.763064e-06, -1.674236e-14,  9.449423e-08, 
                           -1.652021e-11, -7.988054e-12, -6.828513e-12, -1.914584e-17,  5.212292e-17)
  BAND05_SUN_Z_DEN_COEF = (-5.582047e-06,  1.616007e-06, -1.684680e-10,  5.307567e-07, -1.242211e-12, 
                           -2.268855e-11,  1.536410e-11,  4.167644e-18, -1.254459e-16)
  BAND05_DIR00_MEAN_HEIGHT = 4000.000
  BAND05_DIR00_MEAN_L1R_LINE_SAMP = (2999.500, 3299.015)
  BAND05_DIR00_MEAN_L1T_LINE_SAMP = (3659.157, 4023.613)
  BAND05_DIR00_LINE_NUM_COEF = (-1.122317e-01,  9.515577e-01, -1.896204e-01, -1.246191e-04,  9.471496e-08)
  BAND05_DIR00_LINE_DEN_COEF = ( 2.118181e-08,  2.351406e-07, -4.301752e-10, -4.219914e-12)
  BAND05_DIR00_SAMP_NUM_COEF = (-1.197670e+00,  2.480608e-01,  9.696440e-01, -1.403313e-05, -7.002098e-07)
  BAND05_DIR00_SAMP_DEN_COEF = (-7.446514e-07, -1.657534e-07, -1.578840e-06,  1.379685e-10)
  BAND05_DIR01_MEAN_HEIGHT = 4000.000
  BAND05_DIR01_MEAN_L1R_LINE_SAMP = (2999.500, 3299.015)
  BAND05_DIR01_MEAN_L1T_LINE_SAMP = (3658.956, 4023.678)
  BAND05_DIR01_LINE_NUM_COEF = (-3.161954e-01,  9.515577e-01, -1.896204e-01, -1.246191e-04,  9.471497e-08)
  BAND05_DIR01_LINE_DEN_COEF = ( 2.118154e-08,  2.351415e-07, -4.301752e-10, -4.219914e-12)
  BAND05_DIR01_SAMP_NUM_COEF = (-1.185123e+00,  2.480607e-01,  9.696440e-01, -1.403314e-05, -7.002161e-07)
  BAND05_DIR01_SAMP_DEN_COEF = (-7.446487e-07, -1.657812e-07, -1.578840e-06,  1.379684e-10)
END_GROUP = RPC_BAND05
GROUP = RPC_BAND61
  BAND61_LINES_PER_SCAN = 8
  BAND61_NUMBER_OF_DIRECTIONS = 2
  BAND61_NUM_L1T_LINES = 7311
  BAND61_NUM_L1T_SAMPS = 8011
  BAND61_NUM_L1R_LINES = 2999
  BAND61_NUM_L1R_SAMPS = 3299
  BAND61_PIXEL_SIZE = 30.000
  BAND61_START_TIME =   0.000000
  BAND61_LINE_TIME = 0.000000
  BAND61_MEAN_HEIGHT = 4000.000
  BAND61_MEAN_L1R_LINE_SAMP = (1499.500, 1649.015)
  BAND61_MEAN_L1T_LINE_SAMP = (3659.347, 4023.174)
  BAND61_MEAN_SAT_VECTOR = (-0.000346658, -0.003091096,  0.995829780)
  BAND61_SAT_X_NUM_COEF = (-9.557555e-05, -5.669292e-07, -4.741497e-05, -4.866667e-10, -2.305602e-05, 
                           -8.120962e-12,  1.176195e-11,  3.418989e-11,  4.553244e-15,  4.905132e-16)
  BAND61_SAT_X_DEN_COEF = ( 3.742054e-06, -7.994779e-07, -1.411866e-06, -7.931559e-06,  5.100944e-11, 
                            4.816097e-10,  9.618236e-10,  3.768949e-15,  3.118707e-17)
  BAND61_SAT_Y_NUM_COEF = (-6.999528e-04,  4.737362e-05, -6.241763e-07, -4.390530e-09, -9.504812e-05, 
                            3.172158e-12,  5.256313e-11,  1.802225e-10, -7.304587e-15, -2.598331e-16)
  BAND61_SAT_Y_DEN_COEF = ( 5.793551e-06, -1.510245e-06, -1.393033e-06, -1.192897e-05, -3.509277e-11, 
                            7.198932e-10,  9.468494e-10,  3.166594e-14, -3.030660e-15)
  BAND61_SAT_Z_NUM_COEF = ( 4.162926e-03,  1.618110e-07, -2.012740e-08, -1.184816e-08, -3.345698e-07, 
                           -6.846138e-11, -5.365666e-10, -1.051282e-09, -3.385968e-15, -2.546341e-18)
  BAND61_SAT_Z_DEN_COEF = (-1.017291e-06,  1.236126e-07, -2.840819e-06,  1.917707e-06,  8.952440e-11, 
                            7.022291e-10,  1.386457e-09,  2.136993e-15, -5.275801e-16)
  BAND61_MEAN_SUN_VECTOR = ( 0.378186459, -0.266844543,  0.886333939)
  BAND61_SUN_X_NUM_COEF = ( 2.786670e-05, -5.841629e-08, -5.230102e-06,  2.159290e-14, -5.593559e-07, 
                            2.114735e-13,  1.879984e-11,  1.298937e-11,  7.613640e-18,  5.440541e-17)
  BAND61_SUN_X_DEN_COEF = ( 4.229048e-07, -3.935814e-06, -1.773259e-10,  1.065653e-07, -2.393080e-11, 
                           -3.954250e-12,  2.082820e-11,  9.499516e-16,  1.050249e-16)
  BAND61_SUN_Y_NUM_COEF = (-8.075232e-05,  4.163584e-06, -1.555769e-06, -2.581600e-15, -1.619955e-07, 
                            2.669350e-11,  5.834183e-12,  1.891119e-11, -1.136389e-17,  1.318245e-17)
  BAND61_SUN_Y_DEN_COEF = ( 5.492295e-06, -3.379629e-07, -6.917925e-12,  2.590663e-07, -9.847948e-13, 
                           -4.921479e-12,  2.351416e-11,  2.026932e-16,  1.316199e-16)
  BAND61_SUN_Z_NUM_COEF = ( 6.598043e-05,  1.278943e-06,  1.763080e-06, -1.584024e-14,  1.890270e-07, 
                           -1.644249e-11, -7.837140e-12, -6.762254e-12, -1.681507e-16,  4.076646e-16)
  BAND61_SUN_Z_DEN_COEF = (-5.514311e-06,  1.651752e-06, -1.733756e-10,  1.038392e-06, -1.883583e-12, 
                           -2.219069e-11,  1.553871e-11,  1.818108e-17, -9.982527e-16)
  BAND61_DIR00_MEAN_HEIGHT = 4000.000
  BAND61_DIR00_MEAN_L1R_LINE_SAMP = (1499.500, 1649.015)
  BAND61_DIR00_MEAN_L1T_LINE_SAMP = (3659.309, 4022.052)
  BAND61_DIR00_LINE_NUM_COEF = (-5.563371e-02,  4.757789e-01, -9.481044e-02, -6.202658e-05,  4.670493e-08)
  BAND61_DIR00_LINE_DEN_COEF = ( 2.120543e-08,  2.338970e-07, -4.264905e-10, -4.227892e-12)
  BAND61_DIR00_SAMP_NUM_COEF = (-1.682738e+00,  1.240300e-01,  4.848179e-01, -6.470498e-06, -3.501516e-07)
  BAND61_DIR00_SAMP_DEN_COEF = (-7.437264e-07, -1.605982e-07, -1.578839e-06,  1.378551e-10)
  BAND61_DIR01_MEAN_HEIGHT = 4000.000
  BAND61_DIR01_MEAN_L1R_LINE_SAMP = (1499.500, 1649.015)
  BAND61_DIR01_MEAN_L1T_LINE_SAMP = (3659.384, 4024.302)
  BAND61_DIR01_LINE_NUM_COEF = (-2.335061e-01,  4.757788e-01, -9.481039e-02, -6.202655e-05,  4.670503e-08)
  BAND61_DIR01_LINE_DEN_COEF = ( 2.119590e-08,  2.338968e-07, -4.264903e-10, -4.227890e-12)
  BAND61_DIR01_SAMP_NUM_COEF = (-5.825614e-01,  1.240292e-01,  4.848180e-01, -6.470508e-06, -3.501501e-07)
  BAND61_DIR01_SAMP_DEN_COEF = (-7.434133e-07, -1.605848e-07, -1.578840e-06,  1.378552e-10)
END_GROUP = RPC_BAND61
GROUP = RPC_BAND62
  BAND62_LINES_PER_SCAN = 8
  BAND62_NUMBER_OF_DIRECTIONS = 2
  BAND62_NUM_L1T_LINES = 7311
  BAND62_NUM_L1T_SAMPS = 8011
  BAND62_NUM_L1R_LINES = 2999
  BAND62_NUM_L1R_SAMPS = 3299
  BAND62_PIXEL_SIZE = 30.000
  BAND62_START_TIME =   0.000000
  BAND62_LINE_TIME = 0.000000
  BAND62_MEAN_HEIGHT = 4000.000
  BAND62_MEAN_L1R_LINE_SAMP = (1499.500, 1649.015)
  BAND62_MEAN_L1T_LINE_SAMP = (3659.347, 4023.174)
  BAND62_MEAN_SAT_VECTOR = (-0.000346658, -0.003091096,  0.995829780)
  BAND62_SAT_X_NUM_COEF = (-9.557555e-05, -5.669292e-07, -4.741497e-05, -4.866667e-10, -2.305602e-05, 
                           -8.120962e-12,  1.176195e-11,  3.418989e-11,  4.553244e-15,  4.905132e-16)
  BAND62_SAT_X_DEN_COEF = ( 3.742054e-06, -7.994779e-07, -1.411866e-06, -7.931559e-06,  5.100944e-11, 
                            4.816097e-10,  9.618236e-10,  3.768949e-15,  3.118707e-17)
  BAND62_SAT_Y_NUM_COEF = (-6.999528e-04,  4.737362e-05, -6.241763e-07, -4.390530e-09, -9.504812e-05, 
                            3.172158e-12,  5.256313e-11,  1.802225e-10, -7.304587e-15, -2.598331e-16)
  BAND62_SAT_Y_DEN_COEF = ( 5.793551e-06, -1.510245e-06, -1.393033e-06, -1.192897e-05, -3.509277e-11, 
                            7.198932e-10,  9.468494e-10,  3.166594e-14, -3.030660e-15)
  BAND62_SAT_Z_NUM_COEF = ( 4.162926e-03,  1.618110e-07, -2.012740e-08, -1.184816e-08, -3.345698e-07, 
                           -6.846138e-11, -5.365666e-10, -1.051282e-09, -3.385968e-15, -2.546341e-18)
  BAND62_SAT_Z_DEN_COEF = (-1.017291e-06,  1.236126e-07, -2.840819e-06,  1.917707e-06,  8.952440e-11, 
                            7.022291e-10,  1.386457e-09,  2.136993e-15, -5.275801e-16)
  BAND62_MEAN_SUN_VECTOR = ( 0.378186459, -0.266844543,  0.886333939)
  BAND62_SUN_X_NUM_COEF = ( 2.786670e-05, -5.841629e-08, -5.230102e-06,  2.159290e-14, -5.593559e-07, 
                            2.114735e-13,  1.879984e-11,  1.298937e-11,  7.613640e-18,  5.440541e-17)
  BAND62_SUN_X_DEN_COEF = ( 4.229048e-07, -3.935814e-06, -1.773259e-10,  1.065653e-07, -2.393080e-11, 
                           -3.954250e-12,  2.082820e-11,  9.499516e-16,  1.050249e-16)
  BAND62_SUN_Y_NUM_COEF = (-8.075232e-05,  4.163584e-06, -1.555769e-06, -2.581600e-15, -1.619955e-07, 
                            2.669350e-11,  5.834183e-12,  1.891119e-11, -1.136389e-17,  1.318245e-17)
  BAND62_SUN_Y_DEN_COEF = ( 5.492295e-06, -3.379629e-07, -6.917925e-12,  2.590663e-07, -9.847948e-13, 
                           -4.921479e-12,  2.351416e-11,  2.026932e-16,  1.316199e-16)
  BAND62_SUN_Z_NUM_COEF = ( 6.598043e-05,  1.278943e-06,  1.763080e-06, -1.584024e-14,  1.890270e-07, 
                           -1.644249e-11, -7.837140e-12, -6.762254e-12, -1.681507e-16,  4.076646e-16)
  BAND62_SUN_Z_DEN_COEF = (-5.514311e-06,  1.651752e-06, -1.733756e-10,  1.038392e-06, -1.883583e-12, 
                           -2.219069e-11,  1.553871e-11,  1.818108e-17, -9.982527e-16)
  BAND62_DIR00_MEAN_HEIGHT = 4000.000
  BAND62_DIR00_MEAN_L1R_LINE_SAMP = (1499.500, 1649.015)
  BAND62_DIR00_MEAN_L1T_LINE_SAMP = (3659.309, 4022.052)
  BAND62_DIR00_LINE_NUM_COEF = (-5.563371e-02,  4.757789e-01, -9.481044e-02, -6.202658e-05,  4.670493e-08)
  BAND62_DIR00_LINE_DEN_COEF = ( 2.120543e-08,  2.338970e-07, -4.264905e-10, -4.227892e-12)
  BAND62_DIR00_SAMP_NUM_COEF = (-1.682738e+00,  1.240300e-01,  4.848179e-01, -6.470498e-06, -3.501516e-07)
  BAND62_DIR00_SAMP_DEN_COEF = (-7.437264e-07, -1.605982e-07, -1.578839e-06,  1.378551e-10)
  BAND62_DIR01_MEAN_HEIGHT = 4000.000
  BAND62_DIR01_MEAN_L1R_LINE_SAMP = (1499.500, 1649.015)
  BAND62_DIR01_MEAN_L1T_LINE_SAMP = (3659.384, 4024.302)
  BAND62_DIR01_LINE_NUM_COEF = (-2.335061e-01,  4.757788e-01, -9.481039e-02, -6.202655e-05,  4.670503e-08)
  BAND62_DIR01_LINE_DEN_COEF = ( 2.119590e-08,  2.338968e-07, -4.264903e-10, -4.227890e-12)
  BAND62_DIR01_SAMP_NUM_COEF = (-5.825614e-01,  1.240292e-01,  4.848180e-01, -6.470508e-06, -3.501501e-07)
  BAND62_DIR01_SAMP_DEN_COEF = (-7.434133e-07, -1.605848e-07, -1.578840e-06,  1.378552e-10)
END_GROUP = RPC_BAND62
GROUP = RPC_BAND07
  BAND07_LINES_PER_SCAN = 16
  BAND07_NUMBER_OF_DIRECTIONS = 2
  BAND07_NUM_L1T_LINES = 7311
  BAND07_NUM_L1T_SAMPS = 8011
  BAND07_NUM_L1R_LINES = 5999
  BAND07_NUM_L1R_SAMPS = 6599
  BAND07_PIXEL_SIZE = 30.000
  BAND07_START_TIME =   0.000000
  BAND07_LINE_TIME = 0.000000
  BAND07_MEAN_HEIGHT = 4000.000
  BAND07_MEAN_L1R_LINE_SAMP = (2999.500, 3299.015)
  BAND07_MEAN_L1T_LINE_SAMP = (3659.056, 4023.661)
  BAND07_MEAN_SAT_VECTOR = (-0.000375141, -0.003128850,  0.995829655)
  BAND07_SAT_X_NUM_COEF = (-9.581700e-05, -5.673284e-07, -4.741501e-05, -5.270039e-10, -1.152760e-05, 
                           -8.129372e-12,  1.172328e-11,  3.417440e-11,  8.187806e-16,  6.122629e-17)
  BAND07_SAT_X_DEN_COEF = ( 3.702379e-06, -7.894009e-07, -1.411863e-06, -3.922828e-06,  4.613339e-11, 
                            4.835794e-10,  9.616186e-10,  4.674568e-16,  4.302394e-18)
  BAND07_SAT_Y_NUM_COEF = (-7.000664e-04,  4.737409e-05, -6.240537e-07, -4.444824e-09, -4.752452e-05, 
                            3.140015e-12,  5.241995e-11,  1.801551e-10, -9.199191e-16, -3.254581e-17)
  BAND07_SAT_Y_DEN_COEF = ( 6.674806e-06, -1.702509e-06, -1.393151e-06, -6.907541e-06, -3.580402e-11, 
                            7.204187e-10,  9.471249e-10,  3.983292e-15, -3.791251e-16)
  BAND07_SAT_Z_NUM_COEF = ( 4.162892e-03,  1.776888e-07, -2.434885e-08, -1.185035e-08, -1.842407e-07, 
                           -6.846196e-11, -5.365686e-10, -1.051281e-09, -4.230197e-16, -2.537914e-19)
  BAND07_SAT_Z_DEN_COEF = (-9.484900e-07,  1.106568e-07, -2.840823e-06,  8.867468e-07,  8.952421e-11, 
                            7.022122e-10,  1.386438e-09,  2.717385e-16, -6.575334e-17)
  BAND07_MEAN_SUN_VECTOR = ( 0.378183789, -0.266846549,  0.886334474)
  BAND07_SUN_X_NUM_COEF = ( 2.786687e-05, -5.840158e-08, -5.230116e-06,  2.067377e-14, -2.796825e-07, 
                            2.009601e-13,  1.862757e-11,  1.290151e-11,  2.094574e-19,  6.912447e-18)
  BAND07_SUN_X_DEN_COEF = ( 4.479890e-07, -3.917367e-06, -1.756143e-10,  6.080510e-08, -2.367890e-11, 
                           -3.984888e-12,  2.080848e-11,  1.179435e-16,  1.339766e-17)
  BAND07_SUN_Y_NUM_COEF = (-8.075206e-05,  4.163475e-06, -1.555732e-06,  1.267716e-14, -8.087346e-08, 
                            2.654589e-11,  5.925400e-12,  1.889787e-11, -5.766776e-18,  1.828571e-18)
  BAND07_SUN_Y_DEN_COEF = ( 5.455568e-06, -3.291053e-07, -5.857114e-12,  1.301761e-07, -1.151717e-12, 
                           -5.710647e-12,  2.371653e-11,  2.566759e-17,  1.612445e-17)
  BAND07_SUN_Z_NUM_COEF = ( 6.598030e-05,  1.278971e-06,  1.763061e-06, -1.754440e-14,  9.448467e-08, 
                           -1.653354e-11, -8.032175e-12, -6.863112e-12, -1.821938e-17,  5.249155e-17)
  BAND07_SUN_Z_DEN_COEF = (-5.592561e-06,  1.596333e-06, -1.666137e-10,  5.315793e-07, -9.271628e-13, 
                           -2.284495e-11,  1.527289e-11,  5.100376e-18, -1.253468e-16)
  BAND07_DIR00_MEAN_HEIGHT = 4000.000
  BAND07_DIR00_MEAN_L1R_LINE_SAMP = (2999.500, 3299.015)
  BAND07_DIR00_MEAN_L1T_LINE_SAMP = (3659.102, 4023.643)
  BAND07_DIR00_LINE_NUM_COEF = (-1.119979e-01,  9.515578e-01, -1.896201e-01, -1.246250e-04,  9.439004e-08)
  BAND07_DIR00_LINE_DEN_COEF = ( 2.118569e-08,  2.348317e-07, -4.301704e-10, -4.220213e-12)
  BAND07_DIR00_SAMP_NUM_COEF = (-1.207367e+00,  2.480625e-01,  9.696503e-01, -1.399459e-05, -7.001465e-07)
  BAND07_DIR00_SAMP_DEN_COEF = (-7.452367e-07, -1.683014e-07, -1.578840e-06,  1.380081e-10)
  BAND07_DIR01_MEAN_HEIGHT = 4000.000
  BAND07_DIR01_MEAN_L1R_LINE_SAMP = (2999.500, 3299.015)
  BAND07_DIR01_MEAN_L1T_LINE_SAMP = (3659.011, 4023.679)
  BAND07_DIR01_LINE_NUM_COEF = (-2.055293e-01,  9.515578e-01, -1.896201e-01, -1.246250e-04,  9.439004e-08)
  BAND07_DIR01_LINE_DEN_COEF = ( 2.118554e-08,  2.348321e-07, -4.301704e-10, -4.220213e-12)
  BAND07_DIR01_SAMP_NUM_COEF = (-1.194844e+00,  2.480625e-01,  9.696504e-01, -1.399460e-05, -7.001493e-07)
  BAND07_DIR01_SAMP_DEN_COEF = (-7.452344e-07, -1.683140e-07, -1.578839e-06,  1.380081e-10)
END_GROUP = RPC_BAND07
GROUP = RPC_BAND08
  BAND08_LINES_PER_SCAN = 32
  BAND08_NUMBER_OF_DIRECTIONS = 2
  BAND08_NUM_L1T_LINES = 14621
  BAND08_NUM_L1T_SAMPS = 16021
  BAND08_NUM_L1R_LINES = 11999
  BAND08_NUM_L1R_SAMPS = 13199
  BAND08_PIXEL_SIZE = 15.000
  BAND08_START_TIME =   0.000000
  BAND08_LINE_TIME = 0.000000
  BAND08_MEAN_HEIGHT = 4000.000
  BAND08_MEAN_L1R_LINE_SAMP = (5999.500, 6599.008)
  BAND08_MEAN_L1T_LINE_SAMP = (7317.363, 8047.329)
  BAND08_MEAN_SAT_VECTOR = (-0.000379872, -0.003168737,  0.995891014)
  BAND08_SAT_X_NUM_COEF = (-9.396341e-05, -2.836147e-07, -2.370758e-05, -5.338678e-10, -5.763858e-06, 
                           -2.034606e-12,  2.920253e-12,  8.543201e-12,  1.689938e-16,  7.640026e-18)
  BAND08_SAT_X_DEN_COEF = ( 1.850837e-06, -3.945226e-07, -1.412023e-06, -1.960547e-06,  8.930388e-12, 
                            1.219540e-10,  2.403166e-10,  5.751794e-17,  6.852519e-19)
  BAND08_SAT_Y_NUM_COEF = (-6.898819e-04,  2.368629e-05, -3.118624e-07, -4.502498e-09, -2.376145e-05, 
                            7.620217e-13,  1.299876e-11,  4.499807e-11, -1.273534e-16, -4.083750e-18)
  BAND08_SAT_Y_DEN_COEF = ( 3.395589e-06, -8.796813e-07, -1.393325e-06, -3.539256e-06, -1.151194e-11, 
                            1.813947e-10,  2.368216e-10,  5.286139e-16, -5.334707e-17)
  BAND08_SAT_Z_NUM_COEF = ( 4.101415e-03,  1.061701e-07, -1.560107e-08, -1.168047e-08, -1.103189e-07, 
                           -1.711705e-11, -1.341541e-10, -2.628413e-10, -5.284556e-17, -1.477872e-20)
  BAND08_SAT_Z_DEN_COEF = (-4.553017e-07,  5.144234e-08, -2.840868e-06,  4.234503e-07,  2.238226e-11, 
                            1.755552e-10,  3.466169e-10,  3.401962e-17, -8.439626e-18)
  BAND08_MEAN_SUN_VECTOR = ( 0.378183903, -0.266849301,  0.886334566)
  BAND08_SUN_X_NUM_COEF = ( 2.768508e-05, -2.919522e-08, -2.615063e-06,  1.947383e-14, -1.398475e-07, 
                            5.137670e-14,  4.676148e-12,  3.244411e-12, -3.791946e-19,  9.443470e-19)
  BAND08_SUN_X_DEN_COEF = ( 2.166223e-07, -1.965952e-06, -1.727071e-10,  3.083027e-08, -5.789952e-12, 
                           -1.063483e-12,  5.212947e-12,  1.471933e-17,  2.037186e-18)
  BAND08_SUN_Y_NUM_COEF = (-7.958715e-05,  2.081597e-06, -7.778399e-07,  4.964971e-14, -4.028763e-08, 
                            6.649696e-12,  1.473427e-12,  4.725606e-12, -4.933467e-19,  2.073746e-19)
  BAND08_SUN_Y_DEN_COEF = ( 2.735263e-06, -1.662054e-07, -6.238149e-12,  6.402493e-08, -2.748470e-13, 
                           -1.341705e-12,  5.910301e-12,  3.208785e-18,  2.039085e-18)
  BAND08_SUN_Z_NUM_COEF = ( 6.543854e-05,  6.395146e-07,  8.815203e-07, -2.217788e-14,  4.721307e-08, 
                           -4.172151e-12, -2.097106e-12, -1.766349e-12, -1.668386e-18,  6.875229e-18)
  BAND08_SUN_Z_DEN_COEF = (-2.854920e-06,  7.406014e-07, -1.565802e-10,  2.679230e-07,  1.637599e-13, 
                           -5.981575e-12,  3.681920e-12,  1.140314e-18, -1.567921e-17)
  BAND08_DIR00_MEAN_HEIGHT = 4000.000
  BAND08_DIR00_MEAN_L1R_LINE_SAMP = (5999.500, 6599.008)
  BAND08_DIR00_MEAN_L1T_LINE_SAMP = (7316.839, 8047.451)
  BAND08_DIR00_LINE_NUM_COEF = (-2.220844e-01,  9.515583e-01, -1.896183e-01, -2.503817e-04,  4.723694e-08)
  BAND08_DIR00_LINE_DEN_COEF = ( 1.059328e-08,  1.174571e-07, -4.320479e-10, -1.051229e-12)
  BAND08_DIR00_SAMP_NUM_COEF = (-2.501595e+00,  2.480759e-01,  9.697554e-01, -2.810601e-05, -3.499395e-07)
  BAND08_DIR00_SAMP_DEN_COEF = (-3.742736e-07, -9.130223e-08, -1.578831e-06,  3.406125e-11)
  BAND08_DIR01_MEAN_HEIGHT = 4000.000
  BAND08_DIR01_MEAN_L1R_LINE_SAMP = (5999.500, 6599.008)
  BAND08_DIR01_MEAN_L1T_LINE_SAMP = (7317.890, 8047.207)
  BAND08_DIR01_LINE_NUM_COEF = ( 8.244222e-01,  9.515583e-01, -1.896183e-01, -2.503817e-04,  4.723694e-08)
  BAND08_DIR01_LINE_DEN_COEF = ( 1.059354e-08,  1.174560e-07, -4.320479e-10, -1.051229e-12)
  BAND08_DIR01_SAMP_NUM_COEF = (-2.477818e+00,  2.480760e-01,  9.697554e-01, -2.810599e-05, -3.499316e-07)
  BAND08_DIR01_SAMP_DEN_COEF = (-3.742741e-07, -9.126645e-08, -1.578831e-06,  3.406127e-11)
END_GROUP = RPC_BAND08
END
